%YAML 1.1
%TAG !u! tag:unity3d.com,2011:
--- !u!21 &2100000
Material:
  serializedVersion: 6
  m_ObjectHideFlags: 0
  m_CorrespondingSourceObject: {fileID: 0}
  m_PrefabInternal: {fileID: 0}
  m_Name: TerrainMaterial
  m_Shader: {fileID: 4800000, guid: 27143008e5d3f1f40a61692e8c0c0771, type: 3}
  m_ShaderKeywords: _EMISSION _SMOOTHNESS_TEXTURE_ALBEDO_CHANNEL_A _SUNDISK_HIGH_QUALITY
  m_LightmapFlags: 1
  m_EnableInstancingVariants: 0
  m_DoubleSidedGI: 0
  m_CustomRenderQueue: -1
  stringTagMap: {}
  disabledShaderPasses: []
  m_SavedProperties:
    serializedVersion: 3
    m_TexEnvs:
    - _BumpMap:
        m_Texture: {fileID: 0}
        m_Scale: {x: 1, y: 1}
        m_Offset: {x: 0, y: 0}
    - _Control:
        m_Texture: {fileID: 0}
        m_Scale: {x: 1, y: 1}
        m_Offset: {x: 0, y: 0}
    - _DetailAlbedoMap:
        m_Texture: {fileID: 0}
        m_Scale: {x: 1, y: 1}
        m_Offset: {x: 0, y: 0}
    - _DetailMask:
        m_Texture: {fileID: 0}
        m_Scale: {x: 1, y: 1}
        m_Offset: {x: 0, y: 0}
    - _DetailNormalMap:
        m_Texture: {fileID: 0}
        m_Scale: {x: 1, y: 1}
        m_Offset: {x: 0, y: 0}
    - _EmissionMap:
        m_Texture: {fileID: 0}
        m_Scale: {x: 1, y: 1}
        m_Offset: {x: 0, y: 0}
    - _GrassTex:
        m_Texture: {fileID: 2800000, guid: c98ca97e543205f4e84904b82213beb3, type: 3}
        m_Scale: {x: 1, y: 1}
        m_Offset: {x: 0, y: 0}
    - _MainTex:
        m_Texture: {fileID: 2800000, guid: 7a6cb18162a28b641b4fb8e1e73c3819, type: 3}
        m_Scale: {x: 5, y: 5}
        m_Offset: {x: 0, y: 0}
    - _MetallicGlossMap:
        m_Texture: {fileID: 0}
        m_Scale: {x: 1, y: 1}
        m_Offset: {x: 0, y: 0}
    - _Normal0:
        m_Texture: {fileID: 0}
        m_Scale: {x: 1, y: 1}
        m_Offset: {x: 0, y: 0}
    - _Normal1:
        m_Texture: {fileID: 0}
        m_Scale: {x: 1, y: 1}
        m_Offset: {x: 0, y: 0}
    - _Normal2:
        m_Texture: {fileID: 0}
        m_Scale: {x: 1, y: 1}
        m_Offset: {x: 0, y: 0}
    - _Normal3:
        m_Texture: {fileID: 0}
        m_Scale: {x: 1, y: 1}
        m_Offset: {x: 0, y: 0}
    - _OcclusionMap:
        m_Texture: {fileID: 0}
        m_Scale: {x: 1, y: 1}
        m_Offset: {x: 0, y: 0}
    - _ParallaxMap:
        m_Texture: {fileID: 0}
        m_Scale: {x: 1, y: 1}
        m_Offset: {x: 0, y: 0}
    - _RockTex:
        m_Texture: {fileID: 2800000, guid: 040664f8db1963948bc2339c921e8b0d, type: 3}
        m_Scale: {x: 1, y: 1}
        m_Offset: {x: 0, y: 0}
    - _SandTex:
        m_Texture: {fileID: 2800000, guid: 2407ff3deb531524f925c2f39484cbe3, type: 3}
        m_Scale: {x: 100, y: 100}
        m_Offset: {x: 0, y: 0}
    - _SnowTex:
        m_Texture: {fileID: 2800000, guid: 5f5b9d2fc16c4c34eb6defbbab7d5de5, type: 3}
        m_Scale: {x: 5, y: 5}
        m_Offset: {x: 0, y: 0}
    - _Splat0:
        m_Texture: {fileID: 0}
        m_Scale: {x: 1, y: 1}
        m_Offset: {x: 0, y: 0}
    - _Splat1:
        m_Texture: {fileID: 0}
        m_Scale: {x: 1, y: 1}
        m_Offset: {x: 0, y: 0}
    - _Splat2:
        m_Texture: {fileID: 0}
        m_Scale: {x: 1, y: 1}
        m_Offset: {x: 0, y: 0}
    - _Splat3:
        m_Texture: {fileID: 0}
        m_Scale: {x: 1, y: 1}
        m_Offset: {x: 0, y: 0}
    m_Floats:
    - _AtmosphereThickness: 0.56
    - _BumpScale: 1
    - _Cutoff: 0.5
    - _DetailNormalMapScale: 1
    - _DstBlend: 0
    - _Exposure: 1.39
    - _GlossMapScale: 0.62
    - _Glossiness: 0.195
    - _GlossyReflections: 1
    - _GrassHeight: 46.06
    - _MaxHeight: 38.49
    - _Metallic: 0.569
    - _Mode: 0
    - _OcclusionStrength: 1
    - _Parallax: 0.02
    - _RockHeight: 111.1
    - _SmoothnessTextureChannel: 1
    - _SnowHeight: 162.1
    - _SpecularHighlights: 1
    - _SrcBlend: 1
    - _SunDisk: 2
    - _SunSize: 0.42
    - _UVSec: 0
    - _ZWrite: 1
    m_Colors:
    - _Color: {r: 0.46323532, g: 0.46323532, b: 0.46323532, a: 1}
    - _EmissionColor: {r: 0, g: 0, b: 0, a: 1}
    - _GroundColor: {r: 0.369, g: 0.349, b: 0.341, a: 1}
    - _SkyTint: {r: 0.5, g: 0.5, b: 0.5, a: 1}
